^C:\USERS\JAMES\ONEDRIVE\DOCUMENTS\PURRMAID\DEBUG\BOOSTTEST.OBJ|C:\USERS\JAMES\ONEDRIVE\DOCUMENTS\PURRMAID\DEBUG\EVENTMANAGER.OBJ|C:\USERS\JAMES\ONEDRIVE\DOCUMENTS\PURRMAID\DEBUG\MAIN.OBJ|C:\USERS\JAMES\ONEDRIVE\DOCUMENTS\PURRMAID\DEBUG\PURMAIDPRINT.OBJ|C:\USERS\JAMES\ONEDRIVE\DOCUMENTS\PURRMAID\DEBUG\PURRMAID.OBJ|C:\USERS\JAMES\ONEDRIVE\DOCUMENTS\PURRMAID\DEBUG\PURRMAIDTYPES.OBJ|C:\USERS\JAMES\ONEDRIVE\DOCUMENTS\PURRMAID\DEBUG\SCRIPTMANAGER.OBJ|C:\USERS\JAMES\ONEDRIVE\DOCUMENTS\PURRMAID\DEBUG\THREADMANAGER.OBJ
C:\USERS\JAMES\ONEDRIVE\DOCUMENTS\PURRMAID\DEBUG\PURRMAID.ILK
C:\USERS\JAMES\ONEDRIVE\DOCUMENTS\PURRMAID\DEBUG\PURRMAID.EXE
C:\USERS\JAMES\ONEDRIVE\DOCUMENTS\PURRMAID\DEBUG\PURRMAID.PDB
